Search for items by name. Returns paginated results with basic item information.

Endpoint URL
https://api.idle-mmo.com/v1/item/search
Required Scope
v1.item.search
Parameters
query
•
string
Optional
•
Search query to filter items by name or description. Required if type is not provided.
type
•
string
Optional
•
Filter by item type (e.g., WEAPON, UPGRADE_STONE, etc). Required if query is not provided.
page
•
integer
Optional
•
Page number for pagination (default: 1)
Example Request
curl -H "Authorization: Bearer YOUR_API_KEY" \
     -H "User-Agent: YourApp/1.0" \
     https://api.idle-mmo.com/v1/item/search
Example Response
{
    "items": [
        {
            "hashed_id": "abc123def456",
            "name": "Iron Sword",
            "description": "A basic iron sword for combat.",
            "image_url": "https://cdn.idle-mmo.com/images/iron-sword.png",
            "type": "weapon",
            "quality": "COMMON",
            "vendor_price": 100
        },
        {
            "hashed_id": "ghi789jkl012",
            "name": "Iron Shield",
            "description": "A sturdy iron shield for defense.",
            "image_url": "https://cdn.idle-mmo.com/images/iron-shield.png",
            "type": "SHIELD",
            "quality": "COMMON",
            "vendor_price": 150
        }
    ],
    "pagination": {
        "current_page": 1,
        "last_page": 3,
        "per_page": 20,
        "total": 45,
        "from": 1,
        "to": 20
    }
}
Response Fields
items
•
array
items.*.hashed_id
•
string
items.*.name
•
string
items.*.description
•
string|null
items.*.image_url
•
string
items.*.type
•
string
items.*.quality
•
string
items.*.vendor_price
•
integer|null
pagination.current_page
•
integer
pagination.last_page
•
integer
pagination.per_page
•
integer
pagination.total
•
integer
pagination.from
•
integer|null
pagination.to
•
integer|null